\relax 
\providecommand\HyperFirstAtBeginDocument{\AtBeginDocument}
\HyperFirstAtBeginDocument{\ifx\hyper@anchor\@undefined
\global\let\oldcontentsline\contentsline
\gdef\contentsline#1#2#3#4{\oldcontentsline{#1}{#2}{#3}}
\global\let\oldnewlabel\newlabel
\gdef\newlabel#1#2{\newlabelxx{#1}#2}
\gdef\newlabelxx#1#2#3#4#5#6{\oldnewlabel{#1}{{#2}{#3}}}
\AtEndDocument{\ifx\hyper@anchor\@undefined
\let\contentsline\oldcontentsline
\let\newlabel\oldnewlabel
\fi}
\fi}
\global\let\hyper@last\relax 
\gdef\HyperFirstAtBeginDocument#1{#1}
\providecommand\HyField@AuxAddToFields[1]{}
\citation{Loper:2014:OAD}
\citation{Kato:2018:N3M}
\citation{Genova_2018_CVPR}
\citation{palazzi2018end}
\citation{Li:2018:DMC}
\citation{henderson18bmvc}
\citation{azinovic2019inverse}
\citation{Liu:2018:PSE}
\citation{RenderNet2018}
\citation{Liu:2019:SRD}
\citation{ChiyuMaxJiang2019DDSLDD}
\citation{Kajiya:1986:RE}
\citation{Veach:1998:RMC:927297}
\citation{Veach:1998:RMC:927297}
\@writefile{toc}{\contentsline {section}{Abstract}{2}{section*.1}}
\@writefile{toc}{\contentsline {section}{\numberline {1}Introduction}{2}{section.1}}
\@writefile{toc}{\contentsline {section}{\numberline {2}Related Work}{2}{section.2}}
\@writefile{toc}{\contentsline {subsection}{\numberline {2.1}Differential renderer}{2}{subsection.2.1}}
\@writefile{toc}{\contentsline {subsection}{\numberline {2.2}Differential rendering applications}{2}{subsection.2.2}}
\@writefile{toc}{\contentsline {section}{\numberline {3}Background}{2}{section.3}}
\@writefile{toc}{\contentsline {subsection}{\numberline {3.1}Light Transport Simulation}{2}{subsection.3.1}}
\newlabel{sec:pt}{{3.1}{2}{Light Transport Simulation\relax }{subsection.3.1}{}}
\newlabel{eq:path_integral}{{1}{2}{Light Transport Simulation\relax }{equation.3.1}{}}
\newlabel{eq:meas}{{2}{2}{Light Transport Simulation\relax }{equation.3.2}{}}
\@writefile{toc}{\contentsline {subsection}{\numberline {3.2}Multiple Importance Sampling}{2}{subsection.3.2}}
\newlabel{sec:mis}{{3.2}{2}{Multiple Importance Sampling\relax }{subsection.3.2}{}}
\newlabel{eq:mis}{{3}{3}{Multiple Importance Sampling\relax }{equation.3.3}{}}
\@writefile{toc}{\contentsline {subsection}{\numberline {3.3}Bidirectional Path Tracing}{3}{subsection.3.3}}
\newlabel{sec:bpt}{{3.3}{3}{Bidirectional Path Tracing\relax }{subsection.3.3}{}}
\newlabel{eq:weight}{{4}{3}{Bidirectional Path Tracing\relax }{equation.3.4}{}}
\@writefile{toc}{\contentsline {section}{\numberline {4}why-what-how-evaluation}{3}{section.4}}
\@writefile{toc}{\contentsline {subsection}{\numberline {4.1}Why we need made a better differential path tracer?}{3}{subsection.4.1}}
\@writefile{toc}{\contentsline {subsection}{\numberline {4.2}How to}{3}{subsection.4.2}}
\newlabel{eq:sgd}{{5}{3}{How to\relax }{equation.4.5}{}}
\@writefile{lof}{\contentsline {figure}{\numberline {1}{\ignorespaces \relax }}{3}{figure.caption.4}}
\providecommand*\caption@xref[2]{\@setref\relax\@undefined{#1}}
\newlabel{fig:filter}{{1}{3}{\relax \relax }{figure.caption.4}{}}
\@writefile{lof}{\contentsline {figure}{\numberline {2}{\ignorespaces \relax }}{3}{figure.caption.5}}
\newlabel{fig:densitymap}{{2}{3}{\relax \relax }{figure.caption.5}{}}
\@writefile{toc}{\contentsline {section}{\numberline {5}Result and discussion}{3}{section.5}}
\bibstyle{ACM-Reference-Format}
\bibdata{mega_bibtex}
\bibcite{azinovic2019inverse}{{1}{2019}{{Azinovi\'c et~al\unhbox \voidb@x \hbox {.}}}{{Azinovi\'c, Li, Kaplanyan, and Nie{\ss }ner}}}
\bibcite{ChiyuMaxJiang2019DDSLDD}{{2}{2019}{{ChiyuMaxJiang et~al\unhbox \voidb@x \hbox {.}}}{{ChiyuMaxJiang, Lansigan, Marcus, and Nie{\ss }ner}}}
\bibcite{Genova_2018_CVPR}{{3}{2018}{{Genova et~al\unhbox \voidb@x \hbox {.}}}{{Genova, Cole, Maschinot, Sarna, Vlasic, and Freeman}}}
\bibcite{henderson18bmvc}{{4}{2018}{{Henderson and Ferrari}}{{Henderson and Ferrari}}}
\bibcite{Kajiya:1986:RE}{{5}{1986}{{Kajiya}}{{Kajiya}}}
\bibcite{Kato:2018:N3M}{{6}{2018}{{Kato et~al\unhbox \voidb@x \hbox {.}}}{{Kato, Ushiku, and Harada}}}
\bibcite{Li:2018:DMC}{{7}{2018}{{Li et~al\unhbox \voidb@x \hbox {.}}}{{Li, Aittala, Durand, and Lehtinen}}}
\bibcite{Liu:2018:PSE}{{8}{2018}{{Liu et~al\unhbox \voidb@x \hbox {.}}}{{Liu, Tao, and Jacobson}}}
\bibcite{Liu:2019:SRD}{{9}{2019}{{Liu et~al\unhbox \voidb@x \hbox {.}}}{{Liu, Chen, Li, and Li}}}
\bibcite{Loper:2014:OAD}{{10}{2014}{{Loper and Black}}{{Loper and Black}}}
\bibcite{RenderNet2018}{{11}{2018}{{Nguyen-Phuoc et~al\unhbox \voidb@x \hbox {.}}}{{Nguyen-Phuoc, Li, Balaban, and Yang}}}
\bibcite{palazzi2018end}{{12}{2018}{{Palazzi et~al\unhbox \voidb@x \hbox {.}}}{{Palazzi, Bergamini, Calderara, and Cucchiara}}}
\bibcite{Veach:1998:RMC:927297}{{13}{1998}{{Veach}}{{Veach}}}
\newlabel{tocindent-1}{0pt}
\newlabel{tocindent0}{0pt}
\newlabel{tocindent1}{4.5pt}
\newlabel{tocindent2}{11.25pt}
\newlabel{tocindent3}{0pt}
\@writefile{lof}{\contentsline {figure}{\numberline {3}{\ignorespaces \relax }}{4}{figure.caption.6}}
\newlabel{fig:denoise}{{3}{4}{\relax \relax }{figure.caption.6}{}}
\@writefile{toc}{\contentsline {section}{References}{4}{section*.8}}
\newlabel{TotPages}{{4}{4}{}{page.4}{}}
